…
cv_df = 
  crossv_mc(nonlin_df, 100)  # here we have train, test and id 
```

What is happening here? We are resampling and drawing samples that
already exist

``` r
cv_df %>% 
  pull(train) %>% # pull the train column
  .[[1]] %>%  # we are checking the first element of this list  
  as_tibble()  # force this to be a tibble 
```

    ## # A tibble: 79 × 3
    ##       id     x      y
    ##    <int> <dbl>  <dbl>
    ##  1     1 0.112  1.31 
    ##  2     2 0.793 -1.66 
    ##  3     3 0.548  0.668
    ##  4     4 0.992 -3.62 
    ##  5     5 0.220  1.10 
    ##  6     6 0.640 -0.397
    ##  7     7 0.239  1.32 
    ##  8     8 0.816 -1.32 
    ##  9     9 0.671 -0.174
    ## 10    10 0.715 -0.440
    ## # ℹ 69 more rows

``` r
cv_df %>% pull(test) %>% .[[1]] %>%as_tibble() # resulting 7 are here 
```

    ## # A tibble: 21 × 3
    ##       id      x      y
    ##    <int>  <dbl>  <dbl>
    ##  1    17 0.327   0.950
    ##  2    20 0.449   0.845
    ##  3    27 0.529   0.471
    ##  4    29 0.878  -1.95 
    ##  5    30 0.0427  0.298
    ##  6    31 0.0769  0.162
    ##  7    36 0.972  -3.97 
    ##  8    38 0.907  -3.03 
    ##  9    44 0.829  -1.42 
    ## 10    47 0.498   0.330
    ## # ℹ 11 more rows
…
